New.variable.name,type,dhs.variable.name,special.recodes.car
"lack.soap","logical","HV232"
"source.of.water","factor","HV201"
"fetch.water","numeric","HV204","c('No sabe', '995', '998') = NA; c('On premises', 'on premises', 'Delivered water', 'On the spot', 'Less than  minute', 'Delivered to dwelling') = 0; c('More than 12 hours', 'One day or longer', '90 Minutes or more', '300+', '995+', '500 +') = 100"
"location.of.water.source","factor","HV235"
"share.toilet","logical","HV225","c('Yes, other household only', 'Yes, public') = TRUE"
"type.of.toilet","factor","HV205"
"number.of.de.jure.members","numeric","HV012"
